…
### AHRF

View raw clinician rate and clinician rate per 100,000 people at the
state and county level by type of clinician.

``` r
library(MSVI)
library(tidyverse)

ahrf %>% 
  filter(year_represented_by_variable == "2016") %>% 
  group_by(state, variable) %>% 
  count() 
#> # A tibble: 972 x 3
#> # Groups:   state, variable [972]
#>    state   variable                  n
#>    <chr>   <chr>                 <int>
#>  1 Alabama Dentist                  67
#>  2 Alabama DO, All                  67
#>  3 Alabama Family Medicine, DO      67
#>  4 Alabama Family Medicine, MD      67
#>  5 Alabama General Practice, DO     67
#>  6 Alabama General Practice, MD     67
#>  7 Alabama Internal Medicine, DO    67
#>  8 Alabama Internal Medicine, MD    67
#>  9 Alabama MD, All                  67
#> 10 Alabama Nurse Practitioner       67
#> # … with 962 more rows
```
…
### Definitive healthcare

Data on typical bed capacity and average yearly bed utilization of
hospitals across the United States provided by Definitive Healthcare.
(Source: <https://coronavirus-resources.esri.com/datasets/>)

``` r
library(skimr)

definitive_hc %>% 
  group_by(state_name) %>% 
  summarize(mean_icu_beds = mean(num_icu_beds))
#> # A tibble: 53 x 2
#>    state_name           mean_icu_beds
#>    <chr>                        <dbl>
#>  1 Alabama                      13.6 
#>  2 Alaska                        6.89
#>  3 Arizona                      14.8 
#>  4 Arkansas                      8.54
#>  5 California                   18.5 
#>  6 Colorado                     12.0 
#>  7 Connecticut                  20.6 
#>  8 Delaware                     16.5 
#>  9 District of Columbia         29.1 
#> 10 Florida                      22.7 
#> # … with 43 more rows
```

### County health rankings

Data provided by The County Health Rankings & Roadmaps program on health
outcomes and health factors. (Source:
<https://www.countyhealthrankings.org/explore-health-rankings/measures-data-sources/2020-measures>)

``` r
county_health_rankings %>%
  select(state_abbreviation, housing_cost_burden = severe_housing_cost_burden_raw_value) %>% 
  group_by(state_abbreviation) %>% 
  slice_min(housing_cost_burden)
#> # A tibble: 51 x 2
#> # Groups:   state_abbreviation [51]
#>    state_abbreviation housing_cost_burden
#>    <chr>                            <dbl>
#>  1 AK                              0.0325
#>  2 AL                              0.0705
#>  3 AR                              0.0622
#>  4 AZ                              0.0359
#>  5 CA                              0.102 
#>  6 CO                              0.0475
#>  7 CT                              0.125 
#>  8 DC                              0.184 
#>  9 DE                              0.128 
#> 10 FL                              0.0775
#> # … with 41 more rows
```
